{
  "header": {
    "version": 4,
    "description": "Karaoke Mugen Karaoke Data File"
  },
  "medias": [
    {
      "version": "Default",
      "filename": "POR - Brasileira - MV - Cleber & Cauan - Teste Love - Ao Vivo.mp3.mp3",
      "loudnorm": "-8.78,1.45,1.80,-18.97,0.01",
      "filesize": 2878340,
      "duration": 168,
      "default": true,
      "lyrics": [
        {
          "filename": "POR - Brasileira - MV - Cleber & Cauan - Teste Love - Ao Vivo.mp3.ass",
          "default": true,
          "version": "Default"
        }
      ]
    }
  ],
  "data": {
    "created_at": "2023-12-23T18:50:09.336Z",
    "ignoreHooks": false,
    "kid": "b8c9358f-66cc-4e16-be5d-91644a8f00c4",
    "modified_at": "2023-12-24T18:47:25.242Z",
    "repository": "My Custom Songs",
    "tags": {
      "authors": [
        "d23a2a45-46e7-4131-ae6e-f91ccc4b1539"
      ],
      "collections": [
        "efe171c0-e8a1-4d03-98c0-60ecf741ad52"
      ],
      "langs": [
        "b9b63757-658e-4837-b743-fe7bc08d8d27"
      ],
      "series": [
        "d23a2a45-46e7-4131-ae6e-f91ccc4b1539"
      ],
      "songtypes": [
        "7be1b15c-cff8-4b37-a649-5c90f3d569a9"
      ]
    },
    "titles": {
      "por": "Cleber & Cauan - Teste Love - Ao Vivo.mp3"
    },
    "titles_default_language": "por",
    "year": 2023
  }
}