{
  "header": {
    "version": 4,
    "description": "Karaoke Mugen Karaoke Data File"
  },
  "medias": [
    {
      "version": "Default",
      "filename": "POR - Brasileira - MV - Bruno & Marrone, Wesley Safadao - Ultimo Beijo.mp3.mp3",
      "loudnorm": "-6.83,2.26,4.50,-16.95,-0.84",
      "filesize": 3046614,
      "duration": 181,
      "default": true,
      "lyrics": [
        {
          "filename": "POR - Brasileira - MV - Bruno & Marrone, Wesley Safadao - Ultimo Beijo.mp3.ass",
          "default": true,
          "version": "Default"
        }
      ]
    }
  ],
  "data": {
    "created_at": "2023-12-23T18:50:09.336Z",
    "ignoreHooks": false,
    "kid": "6fce30ae-7102-4549-aa81-bb9adb85e2f8",
    "modified_at": "2023-12-24T20:11:32.565Z",
    "repository": "My Custom Songs",
    "tags": {
      "authors": [
        "d23a2a45-46e7-4131-ae6e-f91ccc4b1539"
      ],
      "collections": [
        "efe171c0-e8a1-4d03-98c0-60ecf741ad52"
      ],
      "langs": [
        "b9b63757-658e-4837-b743-fe7bc08d8d27"
      ],
      "series": [
        "d23a2a45-46e7-4131-ae6e-f91ccc4b1539"
      ],
      "songtypes": [
        "7be1b15c-cff8-4b37-a649-5c90f3d569a9"
      ]
    },
    "titles": {
      "por": "Bruno & Marrone, Wesley Safadao - Ultimo Beijo.mp3"
    },
    "titles_default_language": "por",
    "year": 2023
  }
}