{
  "header": {
    "version": 4,
    "description": "Karaoke Mugen Karaoke Data File"
  },
  "medias": [
    {
      "version": "Default",
      "filename": "POR - Brasileira - MV - Ze Neto & Cristiano - Ferida Curada.mp3.mp3",
      "loudnorm": "-6.79,2.17,4.00,-17.05,-1.12",
      "filesize": 2626873,
      "duration": 159,
      "default": true,
      "lyrics": [
        {
          "filename": "POR - Brasileira - MV - Ze Neto & Cristiano - Ferida Curada.mp3.ass",
          "default": true,
          "version": "Default"
        }
      ]
    }
  ],
  "data": {
    "created_at": "2023-12-23T18:50:09.336Z",
    "ignoreHooks": false,
    "kid": "6ef11d34-b7ee-4e7e-b3f2-4d12e4dcabff",
    "modified_at": "2023-12-24T18:37:32.881Z",
    "repository": "My Custom Songs",
    "tags": {
      "authors": [
        "d23a2a45-46e7-4131-ae6e-f91ccc4b1539"
      ],
      "collections": [
        "efe171c0-e8a1-4d03-98c0-60ecf741ad52"
      ],
      "langs": [
        "b9b63757-658e-4837-b743-fe7bc08d8d27"
      ],
      "series": [
        "d23a2a45-46e7-4131-ae6e-f91ccc4b1539"
      ],
      "songtypes": [
        "7be1b15c-cff8-4b37-a649-5c90f3d569a9"
      ]
    },
    "titles": {
      "por": "Ze Neto & Cristiano - Ferida Curada.mp3"
    },
    "titles_default_language": "por",
    "year": 2023
  }
}