{
  "header": {
    "version": 4,
    "description": "Karaoke Mugen Karaoke Data File"
  },
  "medias": [
    {
      "version": "Default",
      "filename": "POR - Brasileira - MV - Gusttavo Lima - Quem Traiu Levou - Ao Vivo.mp3.mp3",
      "loudnorm": "-6.84,2.93,3.00,-17.03,-0.26",
      "filesize": 2628551,
      "duration": 154,
      "default": true,
      "lyrics": [
        {
          "filename": "POR - Brasileira - MV - Gusttavo Lima - Quem Traiu Levou - Ao Vivo.mp3.ass",
          "default": true,
          "version": "Default"
        }
      ]
    }
  ],
  "data": {
    "created_at": "2023-12-23T18:50:09.336Z",
    "ignoreHooks": false,
    "kid": "67d55739-adfe-4334-9e3c-8def25ef7789",
    "modified_at": "2023-12-24T17:32:01.741Z",
    "repository": "My Custom Songs",
    "tags": {
      "authors": [
        "d23a2a45-46e7-4131-ae6e-f91ccc4b1539"
      ],
      "collections": [
        "efe171c0-e8a1-4d03-98c0-60ecf741ad52"
      ],
      "langs": [
        "b9b63757-658e-4837-b743-fe7bc08d8d27"
      ],
      "series": [
        "d23a2a45-46e7-4131-ae6e-f91ccc4b1539"
      ],
      "songtypes": [
        "7be1b15c-cff8-4b37-a649-5c90f3d569a9"
      ]
    },
    "titles": {
      "por": "Gusttavo Lima - Quem Traiu Levou - Ao Vivo.mp3"
    },
    "titles_default_language": "por",
    "year": 2023
  }
}