{
  "header": {
    "version": 4,
    "description": "Karaoke Mugen Karaoke Data File"
  },
  "medias": [
    {
      "version": "Default",
      "filename": "POR - Brasileira - MV - Diego & Victor Hugo - Do Copo Eu Vim (feat. Marilia Mendonca) - Ao Vivo em Brasilia.mp3.mp3",
      "loudnorm": "-6.21,2.22,2.80,-16.38,-0.15",
      "filesize": 2471155,
      "duration": 144,
      "default": true,
      "lyrics": [
        {
          "filename": "POR - Brasileira - MV - Diego & Victor Hugo - Do Copo Eu Vim (feat. Marilia Mendonca) - Ao Vivo em Brasilia.mp3.ass",
          "default": true,
          "version": "Default"
        }
      ]
    }
  ],
  "data": {
    "created_at": "2023-12-23T18:50:09.336Z",
    "ignoreHooks": false,
    "kid": "1ae1a3af-b64e-474e-9d33-b337298f939b",
    "modified_at": "2023-12-24T18:30:39.237Z",
    "repository": "My Custom Songs",
    "tags": {
      "authors": [
        "d23a2a45-46e7-4131-ae6e-f91ccc4b1539"
      ],
      "collections": [
        "efe171c0-e8a1-4d03-98c0-60ecf741ad52"
      ],
      "langs": [
        "b9b63757-658e-4837-b743-fe7bc08d8d27"
      ],
      "series": [
        "d23a2a45-46e7-4131-ae6e-f91ccc4b1539"
      ],
      "songtypes": [
        "7be1b15c-cff8-4b37-a649-5c90f3d569a9"
      ]
    },
    "titles": {
      "por": "Diego & Victor Hugo - Do Copo Eu Vim (feat. Marilia Mendonca) - Ao Vivo em Brasilia.mp3"
    },
    "titles_default_language": "por",
    "year": 2023
  }
}