{
  "header": {
    "version": 4,
    "description": "Karaoke Mugen Karaoke Data File"
  },
  "medias": [
    {
      "version": "Default",
      "filename": "POR - Brasileira - MV - Marilia Mendonca, Maiara & Maraisa - A Solidao E uma Ressaca.mp3.mp3",
      "loudnorm": "-7.64,2.69,3.20,-17.75,-0.01",
      "filesize": 3887440,
      "duration": 231,
      "default": true,
      "lyrics": [
        {
          "filename": "POR - Brasileira - MV - Marilia Mendonca, Maiara & Maraisa - A Solidao E uma Ressaca.mp3.ass",
          "default": true,
          "version": "Default"
        }
      ]
    }
  ],
  "data": {
    "created_at": "2023-12-23T18:50:09.336Z",
    "ignoreHooks": false,
    "kid": "3dcd2faa-7bca-4e9d-b00a-656ba9a6f26a",
    "modified_at": "2023-12-24T18:15:47.831Z",
    "repository": "My Custom Songs",
    "tags": {
      "authors": [
        "d23a2a45-46e7-4131-ae6e-f91ccc4b1539"
      ],
      "collections": [
        "efe171c0-e8a1-4d03-98c0-60ecf741ad52"
      ],
      "langs": [
        "b9b63757-658e-4837-b743-fe7bc08d8d27"
      ],
      "series": [
        "d23a2a45-46e7-4131-ae6e-f91ccc4b1539"
      ],
      "songtypes": [
        "7be1b15c-cff8-4b37-a649-5c90f3d569a9"
      ]
    },
    "titles": {
      "por": "Marilia Mendonca, Maiara & Maraisa - A Solidao E uma Ressaca.mp3"
    },
    "titles_default_language": "por",
    "year": 2023
  }
}