{
  "header": {
    "version": 4,
    "description": "Karaoke Mugen Karaoke Data File"
  },
  "medias": [
    {
      "version": "Default",
      "filename": "POR - Brasileira - MV - Wesley Safadao, Ze Neto & Cristiano - Despedida - Ao Vivo.mp3.mp3",
      "loudnorm": "-9.20,2.01,5.20,-19.22,-1.00",
      "filesize": 3433692,
      "duration": 202,
      "default": true,
      "lyrics": [
        {
          "filename": "POR - Brasileira - MV - Wesley Safadao, Ze Neto & Cristiano - Despedida - Ao Vivo.mp3.ass",
          "default": true,
          "version": "Default"
        }
      ]
    }
  ],
  "data": {
    "created_at": "2023-12-23T18:50:09.336Z",
    "ignoreHooks": false,
    "kid": "a2718901-7141-4152-bf01-aa7a6675e15c",
    "modified_at": "2023-12-24T17:53:00.489Z",
    "repository": "My Custom Songs",
    "tags": {
      "authors": [
        "d23a2a45-46e7-4131-ae6e-f91ccc4b1539"
      ],
      "collections": [
        "efe171c0-e8a1-4d03-98c0-60ecf741ad52"
      ],
      "langs": [
        "b9b63757-658e-4837-b743-fe7bc08d8d27"
      ],
      "series": [
        "d23a2a45-46e7-4131-ae6e-f91ccc4b1539"
      ],
      "songtypes": [
        "7be1b15c-cff8-4b37-a649-5c90f3d569a9"
      ]
    },
    "titles": {
      "por": "Wesley Safadao, Ze Neto & Cristiano - Despedida - Ao Vivo.mp3"
    },
    "titles_default_language": "por",
    "year": 2023
  }
}