{
  "header": {
    "version": 4,
    "description": "Karaoke Mugen Karaoke Data File"
  },
  "medias": [
    {
      "version": "Default",
      "filename": "POR - Brasileira - MV - Anitta, Marilia Mendonca - Some que ele vem atras.mp3.mp3",
      "loudnorm": "-8.43,2.62,7.10,-18.72,-1.34",
      "filesize": 3285400,
      "duration": 194,
      "default": true,
      "lyrics": [
        {
          "filename": "POR - Brasileira - MV - Anitta, Marilia Mendonca - Some que ele vem atras.mp3.ass",
          "default": true,
          "version": "Default"
        }
      ]
    }
  ],
  "data": {
    "created_at": "2023-12-23T18:50:09.336Z",
    "ignoreHooks": false,
    "kid": "93f3190c-d82d-4368-916c-3748fcc885e4",
    "modified_at": "2023-12-24T20:03:08.046Z",
    "repository": "My Custom Songs",
    "tags": {
      "authors": [
        "d23a2a45-46e7-4131-ae6e-f91ccc4b1539"
      ],
      "collections": [
        "efe171c0-e8a1-4d03-98c0-60ecf741ad52"
      ],
      "langs": [
        "b9b63757-658e-4837-b743-fe7bc08d8d27"
      ],
      "series": [
        "d23a2a45-46e7-4131-ae6e-f91ccc4b1539"
      ],
      "songtypes": [
        "7be1b15c-cff8-4b37-a649-5c90f3d569a9"
      ]
    },
    "titles": {
      "por": "Anitta, Marilia Mendonca - Some que ele vem atras.mp3"
    },
    "titles_default_language": "por",
    "year": 2023
  }
}