{
  "header": {
    "version": 4,
    "description": "Karaoke Mugen Karaoke Data File"
  },
  "medias": [
    {
      "version": "Default",
      "filename": "POR - Brasileira - MV - Os Baroes Da Pisadinha - Recairei - Ao Vivo.mp3.mp3",
      "loudnorm": "-6.09,2.59,1.20,-16.35,-0.22",
      "filesize": 2864641,
      "duration": 166,
      "default": true,
      "lyrics": [
        {
          "filename": "POR - Brasileira - MV - Os Baroes Da Pisadinha - Recairei - Ao Vivo.mp3.ass",
          "default": true,
          "version": "Default"
        }
      ]
    }
  ],
  "data": {
    "created_at": "2023-12-23T18:50:09.336Z",
    "ignoreHooks": false,
    "kid": "8f55439d-6919-4de8-8f32-d5c152ad3186",
    "modified_at": "2023-12-24T19:49:03.870Z",
    "repository": "My Custom Songs",
    "tags": {
      "authors": [
        "d23a2a45-46e7-4131-ae6e-f91ccc4b1539"
      ],
      "collections": [
        "efe171c0-e8a1-4d03-98c0-60ecf741ad52"
      ],
      "langs": [
        "b9b63757-658e-4837-b743-fe7bc08d8d27"
      ],
      "series": [
        "d23a2a45-46e7-4131-ae6e-f91ccc4b1539"
      ],
      "songtypes": [
        "7be1b15c-cff8-4b37-a649-5c90f3d569a9"
      ]
    },
    "titles": {
      "por": "Os Baroes Da Pisadinha - Recairei - Ao Vivo.mp3"
    },
    "titles_default_language": "por",
    "year": 2023
  }
}